{
	"info": {
		"_postman_id": "8da63ab2-6b15-484b-929d-7e2423f63bd4",
		"name": "Collection",
		"schema": "https://schema.getpostman.com/json/collection/v2.1.0/collection.json"
	},
	"item": [
		{
			"name": "Value First SMS OTP",
			"item": [
				{
					"name": "Value First SMS Prod",
					"request": {
						"method": "GET",
						"header": [],
						"url": {
							"raw": "https://www.myvaluefirst.com/smpp/sendsms?username=sangamltfs&password=ltfnce89&to=9833163724&from=LNTFIN&text=DEAR CUSTOMER, 123 IS THE ONE-TIME PASSWORD FOR YOUR LOAN APPLICATION WITH L%26T FINANCE LTD.",
							"protocol": "https",
							"host": [
								"www",
								"myvaluefirst",
								"com"
							],
							"path": [
								"smpp",
								"sendsms"
							],
							"query": [
								{
									"key": "username",
									"value": "sangamltfs"
								},
								{
									"key": "password",
									"value": "ltfnce89"
								},
								{
									"key": "to",
									"value": "9833163724"
								},
								{
									"key": "from",
									"value": "LNTFIN"
								},
								{
									"key": "text",
									"value": "DEAR CUSTOMER, 123 IS THE ONE-TIME PASSWORD FOR YOUR LOAN APPLICATION WITH L%26T FINANCE LTD."
								}
							]
						}
					},
					"response": [
						{
							"name": "Value First Prod",
							"originalRequest": {
								"method": "GET",
								"header": [],
								"url": {
									"raw": "https://www.myvaluefirst.com/smpp/sendsms?username=sangamltfs&password=ltfnce89&to=9833163724&from=LNTFIN&text=DEAR CUSTOMER, 123 IS THE ONE-TIME PASSWORD FOR YOUR LOAN APPLICATION WITH L%26T FINANCE LTD.",
									"protocol": "https",
									"host": [
										"www",
										"myvaluefirst",
										"com"
									],
									"path": [
										"smpp",
										"sendsms"
									],
									"query": [
										{
											"key": "username",
											"value": "sangamltfs"
										},
										{
											"key": "password",
											"value": "ltfnce89"
										},
										{
											"key": "to",
											"value": "9833163724"
										},
										{
											"key": "from",
											"value": "LNTFIN"
										},
										{
											"key": "text",
											"value": "DEAR CUSTOMER, 123 IS THE ONE-TIME PASSWORD FOR YOUR LOAN APPLICATION WITH L%26T FINANCE LTD."
										}
									]
								}
							},
							"status": "OK",
							"code": 200,
							"_postman_previewlanguage": "plain",
							"header": [
								{
									"key": "X-XSS-Protection",
									"value": "1; mode=block"
								},
								{
									"key": "X-Frame-Options",
									"value": "SAMEORIGIN"
								},
								{
									"key": "Referrer-Policy",
									"value": "no-referrer"
								},
								{
									"key": "Date",
									"value": "Wed, 05 Feb 2020 09:37:32 GMT"
								},
								{
									"key": "Connection",
									"value": "keep-alive"
								},
								{
									"key": "Strict-Transport-Security",
									"value": "max-age=31536000;includeSubDomains; preload"
								},
								{
									"key": "X-Content-Type-Options",
									"value": "nosniff"
								},
								{
									"key": "Content-Type",
									"value": "text/plain;charset=ISO-8859-1"
								},
								{
									"key": "Content-Length",
									"value": "5"
								}
							],
							"cookie": [],
							"body": "Sent."
						}
					]
				},
				{
					"name": "Value First Credit Status API",
					"request": {
						"method": "GET",
						"header": [],
						"url": {
							"raw": "https://www.myvaluefirst.com/smpp/creditstatus.jsp?user=sangamltfs&password=ltfnce89",
							"protocol": "https",
							"host": [
								"www",
								"myvaluefirst",
								"com"
							],
							"path": [
								"smpp",
								"creditstatus.jsp"
							],
							"query": [
								{
									"key": "user",
									"value": "sangamltfs"
								},
								{
									"key": "password",
									"value": "ltfnce89"
								}
							]
						}
					},
					"response": [
						{
							"name": "Value First Credit Status API",
							"originalRequest": {
								"method": "GET",
								"header": [],
								"url": {
									"raw": "https://www.myvaluefirst.com/smpp/creditstatus.jsp?user=sangamltfs&password=ltfnce89",
									"protocol": "https",
									"host": [
										"www",
										"myvaluefirst",
										"com"
									],
									"path": [
										"smpp",
										"creditstatus.jsp"
									],
									"query": [
										{
											"key": "user",
											"value": "sangamltfs"
										},
										{
											"key": "password",
											"value": "ltfnce89"
										}
									]
								}
							},
							"status": "OK",
							"code": 200,
							"_postman_previewlanguage": "html",
							"header": [
								{
									"key": "Set-Cookie",
									"value": "JSESSIONID=bCAEM0efYU-vaxgcQiYsBv0wEfd02KpnI6Mt14Yp.unknown-host; path=/smpp; HttpOnly"
								},
								{
									"key": "X-XSS-Protection",
									"value": "1; mode=block"
								},
								{
									"key": "X-Frame-Options",
									"value": "SAMEORIGIN"
								},
								{
									"key": "Referrer-Policy",
									"value": "no-referrer"
								},
								{
									"key": "Date",
									"value": "Tue, 31 Mar 2020 12:22:59 GMT"
								},
								{
									"key": "Connection",
									"value": "keep-alive"
								},
								{
									"key": "Strict-Transport-Security",
									"value": "max-age=31536000;includeSubDomains; preload"
								},
								{
									"key": "X-Content-Type-Options",
									"value": "nosniff"
								},
								{
									"key": "Content-Type",
									"value": "text/html;charset=UTF-8"
								},
								{
									"key": "Content-Length",
									"value": "55"
								}
							],
							"cookie": [],
							"body": "creditLimit=9500001,creditUsed=8500580.00,userStatus=1\n"
						}
					]
				}
			],
			"protocolProfileBehavior": {}
		}
	],
	"protocolProfileBehavior": {}
}